quarto-input69f087f0
…
df_buckets <- df %>%
  replace_na(list(n_sponsored = 0)) %>%
  mutate(
    bucket = cut(
      n_sponsored, 
      breaks = c(0, 6, 20, 50, 100, 200, Inf),
      labels = pie_chart_categories,
      right = FALSE  # open on the right, closed on the left
    )
  ) %>%
  select(n_sponsored, bucket)

df_buckets

# A tibble: 370 × 2
   n_sponsored bucket          
         <dbl> <fct>           
 1           2 Up to 5 projects
 2          10 6-19 projects   
 3          20 20-49 projects  
 4           6 6-19 projects   
 5           2 Up to 5 projects
 6           1 Up to 5 projects
 7           0 Up to 5 projects
 8           7 6-19 projects   
 9           1 Up to 5 projects
10          15 6-19 projects   
# ℹ 360 more rows
…
